// Jest Snapshot v1, https://goo.gl/fbAQLP

exports[`<Order /> renders correctly 1`] = `
<div
  className="ListItem"
>
  <h3
    className="title"
  >
    Order 
    1
  </h3>
  <div>
    <span>
      Total: 
    </span>
    <strong>
      €
      92.21
    </strong>
  </div>
</div>
`;
